Human army
InfantryUnit,Footman,100
InfantryUnit,Footman,100
InfantryUnit,Footman,100
InfantryUnit,Footman,100
InfantryUnit,Footman,100
InfantryUnit,Footman,100
InfantryUnit,Footman,100
InfantryUnit,Footman,100
InfantryUnit,Footman,100
InfantryUnit,Footman,100
InfantryUnit,Footman,100
InfantryUnit,Footman,100
InfantryUnit,Footman,100
InfantryUnit,Footman,100
InfantryUnit,Footman,100
InfantryUnit,Footman,100
InfantryUnit,Footman,100
InfantryUnit,Footman,100
InfantryUnit,Footman,100
InfantryUnit,Footman,100
InfantryUnit,Footman,100
RangedUnit,Archer,100
RangedUnit,Archer,100
RangedUnit,Archer,100
RangedUnit,Archer,100
RangedUnit,Archer,100
RangedUnit,Archer,100
RangedUnit,Archer,100
RangedUnit,Archer,100
RangedUnit,Archer,100
RangedUnit,Archer,100
RangedUnit,Archer,100
RangedUnit,Archer,100
RangedUnit,Archer,100
RangedUnit,Archer,100
RangedUnit,Archer,100
RangedUnit,Archer,100
CavalryUnit,Knight,100
CavalryUnit,Knight,100
CavalryUnit,Knight,100
CavalryUnit,Knight,100
CavalryUnit,Knight,100
CavalryUnit,Knight,100
CavalryUnit,Knight,100
CavalryUnit,Knight,100
CommanderUnit,Mountain King,180
CommanderUnit,Mountain King,180